tezt/_regressions/protocol.alpha.voting_period.out

./tezos-codec encode alpha.voting_period from 2147483647
7fffffff

./tezos-codec decode alpha.voting_period from 7fffffff
2147483647

./tezos-codec encode alpha.voting_period from 0
00000000

./tezos-codec decode alpha.voting_period from 00000000
0
